Freedom to act (Mushin)
…
This chunk filters the gapminder dataset to include only rows where the country column equals Kenya.

The == is called an operator. It compares values from the column on the left hand side with the value specified on the right hand side. The value must match the column type. The value "Kenya" was in quotes because the country column is a factor.

The > operator

The greater than operator > filters numeric data.

gapminder %>% filter(year > 2000)
# A tibble: 284 x 6
   country     continent  year lifeExp      pop gdpPercap
   <fct>       <fct>     <int>   <dbl>    <int>     <dbl>
 1 Afghanistan Asia       2002    42.1 25268405      727.
 2 Afghanistan Asia       2007    43.8 31889923      975.
 3 Albania     Europe     2002    75.7  3508512     4604.
 4 Albania     Europe     2007    76.4  3600523     5937.
 5 Algeria     Africa     2002    71.0 31287142     5288.
 6 Algeria     Africa     2007    72.3 33333216     6223.
 7 Angola      Africa     2002    41.0 10866106     2773.
 8 Angola      Africa     2007    42.7 12420476     4797.
 9 Argentina   Americas   2002    74.3 38331121     8798.
10 Argentina   Americas   2007    75.3 40301927    12779.
#  with 274 more rows

This chunk filters rows where year is greater than 2000.

The < operator

The opposite of the > operator is the < operator. This filters numeric columns which are less than a value.

Exercise 6

Filter gapminder to show rows where life expectancy is less than 35.

The results should look like this:

# A tibble: 33 x 6
   country      continent  year lifeExp      pop gdpPercap
   <fct>        <fct>     <int>   <dbl>    <int>     <dbl>
 1 Afghanistan  Asia       1952    28.8  8425333      779.
 2 Afghanistan  Asia       1957    30.3  9240934      821.
 3 Afghanistan  Asia       1962    32.0 10267083      853.
 4 Afghanistan  Asia       1967    34.0 11537966      836.
 5 Angola       Africa     1952    30.0  4232095     3521.
 6 Angola       Africa     1957    32.0  4561361     3828.
 7 Angola       Africa     1962    34    4826015     4269.
 8 Burkina Faso Africa     1952    32.0  4469979      543.
 9 Burkina Faso Africa     1957    34.9  4713416      617.
10 Cambodia     Asia       1977    31.2  6978607      525.
#  with 23 more rows
…
