Quantifying evidence
…
aa <- with(funimagery,  ttestBF(intervention, kg1,posterior=T, iterations=1e4))
aa %>% as_data_frame() %>% group_by
# A tibble: 10,000 x 5
      mu `beta (x - y)`  sig2 delta      g
   <dbl>          <dbl> <dbl> <dbl>  <dbl>
 1  44.8          -89.1  122. -8.08   22.3
 2  46.0          -88.1  143. -7.38   77.1
 3  45.8          -91.1  121. -8.27 1646. 
 4  45.8          -86.9  105. -8.50 7708. 
 5  46.4          -88.9  125. -7.95   71.9
 6  44.1          -88.2  120. -8.05   58.1
 7  45.6          -87.7  115. -8.19   93.7
 8  45.4          -92.6  103. -9.13  173. 
 9  45.7          -89.0  108. -8.57   11.1
10  47.3          -87.2  128. -7.70  169. 
#  with 9,990 more rows
…
