Working with R
…
# this doesn't match any rows because the data spells Kenya with a capital 'K'
development %>% 
  filter(country == "kenya")

# A tibble: 0 x 6
#  with 6 variables: country <fct>, continent <fct>, year <int>,
#   life_expectancy <dbl>, population <int>, gdp_per_capita <dbl>

# filtering on a numeric variable
development %>% filter(year > 2000)

# A tibble: 284 x 6
   country     continent  year life_expectancy population gdp_per_capita
   <fct>       <fct>     <int>           <dbl>      <int>          <dbl>
 1 Afghanistan Asia       2002            42.1   25268405           727.
 2 Afghanistan Asia       2007            43.8   31889923           975.
 3 Albania     Europe     2002            75.7    3508512          4604.
 4 Albania     Europe     2007            76.4    3600523          5937.
 5 Algeria     Africa     2002            71.0   31287142          5288.
 6 Algeria     Africa     2007            72.3   33333216          6223.
 7 Angola      Africa     2002            41.0   10866106          2773.
 8 Angola      Africa     2007            42.7   12420476          4797.
 9 Argentina   Americas   2002            74.3   38331121          8798.
10 Argentina   Americas   2007            75.3   40301927         12779.
#  with 274 more rows
…
# assign filtered data to a new variable for re-use later on
# if you don't store the data, it is displayed but then lost
development.europe <- development %>% 
  filter(continent == "Europe") %>% 
  filter(year > 1980)

# show the stored subset
development.europe

# A tibble: 180 x 6
   country continent  year life_expectancy population gdp_per_capita
   <fct>   <fct>     <int>           <dbl>      <int>          <dbl>
 1 Albania Europe     1982            70.4    2780097          3631.
 2 Albania Europe     1987            72      3075321          3739.
 3 Albania Europe     1992            71.6    3326498          2497.
 4 Albania Europe     1997            73.0    3428038          3193.
 5 Albania Europe     2002            75.7    3508512          4604.
 6 Albania Europe     2007            76.4    3600523          5937.
 7 Austria Europe     1982            73.2    7574613         21597.
 8 Austria Europe     1987            74.9    7578903         23688.
 9 Austria Europe     1992            76.0    7914969         27042.
10 Austria Europe     1997            77.5    8069876         29096.
#  with 170 more rows
…
This doesnt match any rows because from Rs point of view
"kenya" and "Kenya" are completely
different!

Numeric filters

The greater than operator > filters on numeric
columns. For example, year is a column in the
development dataset.

development %>%
  filter(year > 2000)

# A tibble: 284 x 6
   country     continent  year life_expectancy population gdp_per_capita
   <fct>       <fct>     <int>           <dbl>      <int>          <dbl>
 1 Afghanistan Asia       2002            42.1   25268405           727.
 2 Afghanistan Asia       2007            43.8   31889923           975.
 3 Albania     Europe     2002            75.7    3508512          4604.
 4 Albania     Europe     2007            76.4    3600523          5937.
 5 Algeria     Africa     2002            71.0   31287142          5288.
 6 Algeria     Africa     2007            72.3   33333216          6223.
 7 Angola      Africa     2002            41.0   10866106          2773.
 8 Angola      Africa     2007            42.7   12420476          4797.
 9 Argentina   Americas   2002            74.3   38331121          8798.
10 Argentina   Americas   2007            75.3   40301927         12779.
#  with 274 more rows
…
Dont forget to store filtered data

Beginners often forget to assign their filtered data to a new
variable. Remember to give your variables short but descriptive names so
you know what they are.

Exercise 6

Filter the development dataset to show countries with a
population greater than 100 million.

Your results should look like this:

# A tibble: 77 x 6
   country    continent  year life_expectancy population gdp_per_capita
   <fct>      <fct>     <int>           <dbl>      <int>          <dbl>
 1 Bangladesh Asia       1987            52.8  103764241           752.
 2 Bangladesh Asia       1992            56.0  113704579           838.
 3 Bangladesh Asia       1997            59.4  123315288           973.
 4 Bangladesh Asia       2002            62.0  135656790          1136.
 5 Bangladesh Asia       2007            64.1  150448339          1391.
 6 Brazil     Americas   1972            59.5  100840058          4986.
 7 Brazil     Americas   1977            61.5  114313951          6660.
 8 Brazil     Americas   1982            63.3  128962939          7031.
 9 Brazil     Americas   1987            65.2  142938076          7807.
10 Brazil     Americas   1992            67.1  155975974          6950.
#  with 67 more rows

Exercise 7

Show countries with a population greater than 100 million and life
expectancy greater than 70.

The results should look like this:

# A tibble: 27 x 6
   country   continent  year life_expectancy population gdp_per_capita
   <fct>     <fct>     <int>           <dbl>      <int>          <dbl>
 1 Brazil    Americas   2002            71.0  179914212          8131.
 2 Brazil    Americas   2007            72.4  190010647          9066.
 3 China     Asia       1997            70.4 1230075000          2289.
 4 China     Asia       2002            72.0 1280400000          3119.
 5 China     Asia       2007            73.0 1318683096          4959.
 6 Indonesia Asia       2007            70.6  223547000          3541.
 7 Japan     Asia       1967            71.4  100825279          9848.
 8 Japan     Asia       1972            73.4  107188273         14779.
 9 Japan     Asia       1977            75.4  113872473         16610.
10 Japan     Asia       1982            77.1  118454974         19384.
#  with 17 more rows
…
